{
    "key": "group_5d284755a4dbf",
    "title": "Vis sidetitel",
    "fields": [
        {
            "key": "field_5d28479ac0981",
            "label": "Vis sidetitel",
            "name": "show_title",
            "type": "true_false",
            "instructions": "Skal sidetitel vises på denne side? Husk hvis du vælger at den ikke skal vises på denne side bør du tilføje en h1'er andetsteds på siden af SEO mæssige årsager.",
            "required": 0,
            "conditional_logic": 0,
            "wrapper": {
                "width": "",
                "class": "",
                "id": ""
            },
            "message": "",
            "default_value": 1,
            "ui": 0,
            "ui_on_text": "",
            "ui_off_text": ""
        }
    ],
    "location": [
        [
            {
                "param": "page_template",
                "operator": "==",
                "value": "page-layouts.php"
            }
        ]
    ],
    "menu_order": 0,
    "position": "side",
    "style": "default",
    "label_placement": "top",
    "instruction_placement": "label",
    "hide_on_screen": "",
    "active": 1,
    "description": "",
    "modified": 1562921289
}